nasapower
…
#> ──────────────────────────────────────────────────────────────────────────────────────────────────
#> 
#> ── NASA/POWER CERES/MERRA2 Native Resolution Daily Data  ─────────────────────────────────────────
#> Dates (month/day/year): 01/01/1985 through 01/31/1985
#> Location: Latitude -27.48 Longitude 151.81
#> Elevation from MERRA-2: Average for 0.5 x 0.625 degree lat/lon region = 442.77 meters
#> The value for missing source data that cannot be computed or is outside of the sources
#> availability range: NA
#> Parameter(s):
#> ──────────────────────────────────────────────────────────────────────────────────────────────────
#> Parameters:
#> RH2M MERRA-2 Relative Humidity at 2 Meters (%) ; T2M MERRA-2 Temperature at 2 Meters (C) ;
#> PRECTOTCORR MERRA-2 Precipitation Corrected (mm/day)
#> ──────────────────────────────────────────────────────────────────────────────────────────────────
#> # A tibble: 31 × 10
#>      LON   LAT  YEAR    MM    DD   DOY YYYYMMDD    RH2M   T2M PRECTOTCORR
#>    <dbl> <dbl> <dbl> <int> <int> <int> <date>     <dbl> <dbl>       <dbl>
#>  1  152. -27.5  1985     1     1     1 1985-01-01  54.7  24.9        0.9 
#>  2  152. -27.5  1985     1     2     2 1985-01-02  42.1  28.6        0.49
#>  3  152. -27.5  1985     1     3     3 1985-01-03  43.4  27.4        0.01
#>  4  152. -27.5  1985     1     4     4 1985-01-04  48.9  24.3        0.05
#>  5  152. -27.5  1985     1     5     5 1985-01-05  55.3  26.5        1.33
#>  6  152. -27.5  1985     1     6     6 1985-01-06  60.2  27.0        4.88
#>  7  152. -27.5  1985     1     7     7 1985-01-07  63.1  27.2       10.7 
#>  8  152. -27.5  1985     1     8     8 1985-01-08  70.6  24.9       10   
#>  9  152. -27.5  1985     1     9     9 1985-01-09  60    26.1        2.45
#> 10  152. -27.5  1985     1    10    10 1985-01-10  45.2  27.0        0.48
#> # ℹ 21 more rows
…
daily_region_ag
#> ──────────────────────────────────────────────────────────────────────────────────────────────────
#> 
#> ── NASA/POWER CERES/MERRA2 Native Resolution Daily Data  ─────────────────────────────────────────
#> Dates (month/day/year): 01/01/1985 through 01/02/1985
#> Location: Regional
#> Elevation from MERRA-2: Average for 0.5 x 0.625 degree lat/lon region = na meters
#> The value for missing source data that cannot be computed or is outside of the sources
#> availability range: NA
#> Parameter(s):
#> ──────────────────────────────────────────────────────────────────────────────────────────────────
#> Parameters:
#> RH2M MERRA-2 Relative Humidity at 2 Meters (%) ; T2M MERRA-2 Temperature at 2 Meters (C)
#> ──────────────────────────────────────────────────────────────────────────────────────────────────
#> # A tibble: 72 × 9
#>      LAT   LON  YEAR    MM    DD   DOY YYYYMMDD    RH2M   T2M
#>    <dbl> <dbl> <dbl> <int> <int> <int> <date>     <dbl> <dbl>
#>  1 -28.2  151.  1985     1     1     1 1985-01-01  43.6  26.5
#>  2 -28.2  151.  1985     1     1     1 1985-01-01  44.4  25.8
#>  3 -28.2  152.  1985     1     1     1 1985-01-01  52.6  24.0
#>  4 -28.2  152.  1985     1     1     1 1985-01-01  57.7  23.9
#>  5 -28.2  153.  1985     1     1     1 1985-01-01  61.4  24.9
#>  6 -28.2  153.  1985     1     1     1 1985-01-01  66.1  26.0
#>  7 -27.8  151.  1985     1     1     1 1985-01-01  45.8  26.5
#>  8 -27.8  151.  1985     1     1     1 1985-01-01  47.9  26.0
#>  9 -27.8  152.  1985     1     1     1 1985-01-01  53.4  24.8
#> 10 -27.8  152.  1985     1     1     1 1985-01-01  56.7  25.1
#> # ℹ 62 more rows
…
#> ──────────────────────────────────────────────────────────────────────────────────────────────────
#> 
#> ── NASA/POWER CERES/MERRA2 Native Resolution Monthly and Annual  ─────────────────────────────────
#> Dates (month/day/year): 01/01/1984 through 12/31/1985
#> Location: Regional
#> Elevation from MERRA-2: Average for 0.5 x 0.625 degree lat/lon region = na meters
#> The value for missing source data that cannot be computed or is outside of the sources
#> availability range: NA
#> Parameter(s):
#> ──────────────────────────────────────────────────────────────────────────────────────────────────
#> Parameters:
#> ALLSKY_SFC_SW_DWN CERES SYN1deg All Sky Surface Shortwave Downward Irradiance (kW-hr/m^2/day) ;
#> CLRSKY_SFC_SW_DWN CERES SYN1deg Clear Sky Surface Shortwave Downward Irradiance (kW-hr/m^2/day)
#> ──────────────────────────────────────────────────────────────────────────────────────────────────
#> # A tibble: 144 × 17
#>    PARAMETER    YEAR   LAT   LON   JAN   FEB   MAR   APR   MAY   JUN   JUL   AUG   SEP   OCT   NOV
#>    <chr>       <dbl> <dbl> <dbl> <dbl> <dbl> <dbl> <dbl> <dbl> <dbl> <dbl> <dbl> <dbl> <dbl> <dbl>
#>  1 ALLSKY_SFC…  1984 -25.8  151.  6.01  6.49  5.79  4.67  4.12  3.77  2.46  4.87  6.11  5.5   7.97
#>  2 ALLSKY_SFC…  1984 -25.8  151.  5.92  5.97  5.64  4.37  4.01  3.61  2.6   4.8   5.84  5.24  7.6 
#>  3 ALLSKY_SFC…  1984 -25.8  152.  5.92  5.97  5.64  4.37  4.01  3.61  2.6   4.8   5.84  5.24  7.6 
#>  4 ALLSKY_SFC…  1984 -25.8  152.  5.96  5.85  5.56  4.26  3.92  3.52  2.66  4.59  5.58  4.94  7.23
#>  5 ALLSKY_SFC…  1984 -25.8  153.  5.96  5.85  5.56  4.26  3.92  3.52  2.66  4.59  5.58  4.94  7.23
#>  6 ALLSKY_SFC…  1984 -25.8  153.  6.23  6.05  5.88  4.26  3.81  3.3   2.96  4.73  5.66  5.25  7.6 
#>  7 ALLSKY_SFC…  1984 -26.2  151.  5.97  6.65  6     4.66  4.02  3.72  2.28  4.86  6.08  5.74  7.74
#>  8 ALLSKY_SFC…  1984 -26.2  151.  6     6.38  5.71  4.38  4.01  3.66  2.17  4.88  6.01  5.43  7.46
#>  9 ALLSKY_SFC…  1984 -26.2  152.  6     6.38  5.71  4.38  4.01  3.66  2.17  4.88  6.01  5.43  7.46
#> 10 ALLSKY_SFC…  1984 -26.2  152.  5.75  5.96  5.37  4.13  3.8   3.44  2.38  4.81  5.75  4.99  6.94
#> # ℹ 134 more rows
#> # ℹ 2 more variables: DEC <dbl>, ANN <dbl>
…
